build/shift_reg.vcd
$date
	Fri Apr  5 21:33:13 2024
$end
$version
	Icarus Verilog
$end
$timescale
	100ps
$end
$scope module shift_reg_tb $end
$var wire 1 ! serial_out $end
$var wire 8 " data_out [7:0] $end
$var parameter 32 # WIDTH $end
$var reg 1 $ clk $end
$var reg 1 % data_in $end
$var reg 1 & rst_n $end
$var reg 1 ' shift_en $end
$upscope $end
$enddefinitions $end
$comment Show the parameter values. $end
$dumpall
b1000 #
$end
#0
$dumpvars
0'
1&
0%
0$
bx "
x!
$end
#40
1$
#80
0$
#100
0!
b0 "
0&
#120
1$
#160
0$
#200
1$
1&
#240
0$
#280
1$
#320
0$
#360
1$
#400
0$
#440
1$
#480
0$
#520
1$
#560
0$
#600
1$
#640
0$
#680
1$
#700
1'
#720
0$
#760
1$
#800
1%
0$
#840
b10000000 "
1$
#880
0$
#920
b11000000 "
1$
#960
0$
#1000
b11100000 "
1$
#1040
0$
#1080
b11110000 "
1$
#1120
0$
#1160
b11111000 "
1$
#1200
0$
#1240
b11111100 "
1$
#1280
0%
0$
#1320
b1111110 "
1$
#1360
0'
1%
0$
#1400
1$
#1440
0$
#1480
1$
#1520
0$
#1560
1$
#1600
0$
#1640
1$
#1680
0$
#1720
1$
#1760
0$
#1800
1$
#1840
0$
#1860
1'
#1880
1!
b10111111 "
1$
#1920
0$
#1960
b11011111 "
1$
#2000
0%
0$
#2040
b1101111 "
1$
#2080
1%
0$
#2120
b10110111 "
1$
#2160
0$
#2200
b11011011 "
1$
#2240
0%
0$
#2280
b1101101 "
1$
#2320
1%
0$
#2360
0!
b10110110 "
1$
#2400
0%
0$
#2440
1!
b1011011 "
1$
#2480
1%
0$
#2520
b10101101 "
1$
#2560
0'
0%
0$
#2600
1$
#2640
0$
#2680
1$
#2720
0$
#2760
1$
#2800
0$
#2840
1$
#2880
0$
#2920
1$
#2960
0$
#3000
1$
#3040
0$
#3060
1'
#3080
0!
b1010110 "
1$
#3120
1%
0$
#3160
1!
b10101011 "
1$
#3200
0$
#3240
b11010101 "
1$
#3280
0%
0$
#3320
0!
b1101010 "
1$
#3360
1%
0$
#3400
1!
b10110101 "
1$
#3440
0%
0$
#3480
0!
b1011010 "
1$
#3520
0$
#3560
1!
b101101 "
1$
#3600
0$
#3640
0!
b10110 "
1$
#3680
1%
0$
#3720
1!
b10001011 "
1$
#3760
0'
0%
0$
#3800
1$
#3840
0$
#3880
1$
#3920
0$
#3960
1$
#4000
0$
#4040
1$
#4080
0$
#4120
1$
#4160
0$
#4200
1$
#4240
0$
#4260
1'
#4280
b1000101 "
1$
#4320
1%
0$
#4360
0!
b10100010 "
1$
#4400
0$
#4440
1!
b11010001 "
1$
#4480
0$
#4520
0!
b11101000 "
1$
#4560
0$
#4600
b11110100 "
1$
#4640
0%
0$
#4680
b1111010 "
1$
#4720
0$
#4760
1!
b111101 "
1$
#4800
0$
#4840
0!
b11110 "
1$
#4880
0$
#4920
1!
b1111 "
1$
#4960
0'
1%
0$
#5000
1$
#5040
0$
#5080
1$
#5120
0$
#5160
1$
#5200
0$
#5240
1$
#5280
0$
#5320
1$
#5360
0$
#5400
1$
#5440
0$
#5460
1'
#5480
b10000111 "
1$
#5520
0%
0$
#5560
b1000011 "
1$
#5600
1%
0$
#5640
b10100001 "
1$
#5680
0$
#5720
0!
b11010000 "
1$
#5760
0$
#5800
b11101000 "
1$
#5840
0$
#5880
b11110100 "
1$
#5920
0$
#5960
b11111010 "
1$
#6000
0%
0$
#6040
1!
b1111101 "
1$
#6080
0$
#6120
0!
b111110 "
1$
#6160
0'
1%
0$
#6200
1$
#6240
0$
#6280
1$
#6320
0$
#6360
1$
#6400
0$
#6440
1$
#6480
0$
#6520
1$
#6560
0$
#6600
1$
#6640
0$
#6660
1'
#6680
1!
b10011111 "
1$
#6720
0$
#6760
b11001111 "
1$
#6800
0$
#6840
b11100111 "
1$
#6880
0%
0$
#6920
b1110011 "
1$
#6960
0$
#7000
b111001 "
1$
#7040
0$
#7080
0!
b11100 "
1$
#7120
0$
#7160
b1110 "
1$
#7200
0$
#7240
1!
b111 "
1$
#7280
1%
0$
#7320
b10000011 "
1$
#7360
0'
0%
0$
#7400
1$
#7440
0$
#7480
1$
#7520
0$
#7560
1$
#7600
0$
#7640
1$
#7680
0$
#7720
1$
#7760
0$
#7800
1$
#7840
0$
#7860
1'
#7880
b1000001 "
1$
#7920
0$
#7960
0!
b100000 "
1$
#8000
1%
0$
#8040
b10010000 "
1$
#8080
0$
#8120
b11001000 "
1$
#8160
0%
0$
#8200
b1100100 "
1$
#8240
0$
#8280
b110010 "
1$
#8320
0$
#8360
1!
b11001 "
1$
#8400
0$
#8440
0!
b1100 "
1$
#8480
0$
#8520
b110 "
1$
#8560
0'
1%
0$
#8600
1$
#8640
0$
#8680
1$
#8720
0$
#8760
1$
#8800
0$
#8840
1$
#8880
0$
#8920
1$
#8960
0$
#9000
1$
#9040
0$
#9060
1'
#9080
1!
b10000011 "
1$
#9120
0$
#9160
b11000001 "
1$
#9200
0$
#9240
0!
b11100000 "
1$
#9280
0$
#9320
b11110000 "
1$
#9360
0$
#9400
b11111000 "
1$
#9440
0%
0$
#9480
b1111100 "
1$
#9520
0$
#9560
b111110 "
1$
#9600
1%
0$
#9640
1!
b10011111 "
1$
#9680
0$
#9720
b11001111 "
1$
#9760
0'
0$
#9800
1$
#9840
0$
#9880
1$
#9920
0$
#9960
1$
#10000
0$
#10040
1$
#10080
0$
#10120
1$
#10160
0$
#10200
1$
#10240
0$
#10260
1'
#10280
b11100111 "
1$
#10320
0%
0$
#10360
b1110011 "
1$
#10400
0$
#10440
b111001 "
1$
#10480
1%
0$
#10520
0!
b10011100 "
1$
#10560
0$
#10600
b11001110 "
1$
#10640
0%
0$
#10680
1!
b1100111 "
1$
#10720
1%
0$
#10760
b10110011 "
1$
#10800
0$
#10840
b11011001 "
1$
#10880
0%
0$
#10920
0!
b1101100 "
1$
#10960
0'
1%
0$
#11000
1$
#11040
0$
#11080
1$
#11120
0$
#11160
1$
#11200
0$
#11240
1$
#11280
0$
#11320
1$
#11360
0$
#11400
1$
#11440
0$
#11460
1'
#11480
b10110110 "
1$
#11520
0$
#11560
1!
b11011011 "
1$
#11600
0$
#11640
b11101101 "
1$
#11680
0%
0$
#11720
0!
b1110110 "
1$
#11760
1%
0$
#11800
1!
b10111011 "
1$
#11840
0$
#11880
b11011101 "
1$
#11920
0%
0$
#11960
0!
b1101110 "
1$
#12000
0$
#12040
1!
b110111 "
1$
#12080
0$
#12120
b11011 "
1$
#12160
0'
0$
